iter	Passed	Remaining
0	53	53184
1	57	28528
2	60	20007
3	63	15866
4	67	13347
5	69	11552
6	74	10523
7	77	9583
8	80	8833
9	83	8234
10	86	7817
11	90	7489
12	94	7176
13	97	6860
14	100	6567
15	102	6325
16	105	6109
17	108	5925
18	111	5752
19	114	5592
20	117	5478
21	120	5346
22	123	5229
23	126	5146
24	130	5090
25	133	5001
26	136	4921
27	139	4839
28	142	4762
29	145	4689
30	148	4649
31	153	4628
32	155	4569
33	158	4516
34	161	4459
35	164	4403
36	167	4362
37	170	4316
38	173	4273
39	176	4247
40	179	4205
41	182	4158
42	184	4111
43	188	4085
44	192	4082
45	195	4045
46	197	4010
47	200	3981
48	203	3950
49	207	3935
50	210	3915
51	214	3911
52	217	3890
53	220	3863
54	223	3837
55	226	3813
56	228	3787
57	232	3774
58	235	3753
59	238	3737
60	241	3714
61	244	3691
62	247	3680
63	251	3672
64	254	3657
65	257	3637
66	259	3619
67	263	3605
68	267	3605
69	270	3598
70	275	3601
71	278	3593
72	281	3575
73	284	3559
74	287	3544
75	290	3527
76	292	3510
77	297	3513
78	301	3511
79	304	3497
80	306	3482
81	309	3469
82	313	3458
83	316	3452
84	319	3440
85	322	3427
86	326	3427
87	329	3412
88	332	3399
89	335	3390
90	339	3388
91	342	3380
92	345	3367
93	348	3355
94	350	3343
95	353	3331
96	358	3338
97	362	3335
98	365	3324
99	367	3304
100	370	3294
101	372	3282
102	376	3275
103	379	3266
104	382	3256
105	385	3252
106	388	3243
107	391	3233
108	394	3227
109	398	3226
110	401	3217
111	404	3206
112	407	3200
113	410	3190
114	413	3180
115	416	3175
116	420	3172
117	423	3165
118	426	3154
119	428	3144
120	431	3135
121	434	3125
122	437	3119
123	440	3111
124	444	3109
125	446	3100
126	449	3090
127	452	3081
128	455	3077
129	459	3076
130	462	3069
131	465	3061
132	468	3054
133	471	3048
134	475	3044
135	479	3044
136	482	3036
137	485	3032
138	488	3024
139	491	3016
140	494	3010
141	497	3003
142	499	2994
143	503	2994
144	506	2987
145	509	2981
146	512	2975
147	516	2975
148	519	2967
149	522	2960
150	525	2954
151	528	2947
152	531	2940
153	536	2946
154	539	2942
155	542	2935
156	545	2929
157	549	2925
158	551	2919
159	554	2913
160	557	2906
161	560	2900
162	564	2897
163	567	2891
164	570	2886
165	574	2888
166	578	2883
167	581	2880
168	584	2874
169	587	2868
170	590	2862
171	594	2860
172	598	2863
173	601	2857
174	605	2856
175	608	2851
176	611	2845
177	615	2842
178	618	2835
179	621	2831
180	624	2827
181	627	2821
182	630	2814
183	633	2810
184	637	2808
185	640	2802
186	643	2799
187	646	2793
188	649	2787
189	652	2783
190	656	2780
191	660	2779
192	663	2774
193	666	2768
194	669	2762
195	672	2757
196	675	2752
197	678	2747
198	682	2746
199	685	2741
200	688	2736
201	691	2730
202	694	2726
203	698	2726
204	701	2721
205	704	2715
206	707	2711
207	711	2710
208	716	2711
209	719	2705
210	722	2700
211	725	2696
212	728	2690
213	731	2684
214	733	2679
215	736	2674
216	740	2671
217	743	2666
218	745	2660
219	748	2654
220	752	2652
221	755	2649
222	758	2643
223	761	2638
224	764	2634
225	767	2628
226	771	2626
227	775	2624
228	778	2620
229	781	2615
230	784	2610
231	787	2606
232	790	2601
233	793	2596
234	796	2591
235	799	2589
236	803	2585
237	805	2580
238	808	2575
239	812	2572
240	815	2569
241	819	2566
242	822	2561
243	825	2556
244	828	2552
245	832	2550
246	836	2549
247	839	2544
248	842	2539
249	845	2535
250	848	2530
251	851	2527
252	854	2522
253	857	2517
254	861	2518
255	865	2515
256	868	2511
257	871	2506
258	874	2501
259	877	2497
260	880	2492
261	883	2487
262	886	2483
263	889	2480
264	892	2475
265	895	2470
266	899	2468
267	903	2467
268	906	2463
269	909	2459
270	912	2455
271	915	2451
272	919	2447
273	923	2446
274	926	2443
275	930	2440
276	933	2436
277	936	2432
278	942	2435
279	947	2435
280	953	2439
281	956	2434
282	959	2430
283	962	2427
284	965	2423
285	968	2419
286	971	2414
287	974	2410
288	978	2407
289	981	2403
290	987	2406
291	992	2406
292	995	2401
293	998	2396
294	1001	2392
295	1004	2388
296	1009	2389
297	1013	2387
298	1016	2383
299	1019	2379
300	1022	2375
301	1026	2372
302	1029	2369
303	1035	2370
304	1039	2369
305	1043	2366
306	1046	2362
307	1049	2358
308	1052	2354
309	1056	2351
310	1059	2347
311	1064	2346
312	1068	2344
313	1071	2340
314	1075	2337
315	1078	2335
316	1082	2332
317	1086	2329
318	1089	2325
319	1094	2325
320	1098	2323
321	1102	2320
322	1105	2316
323	1108	2311
324	1111	2307
325	1114	2303
326	1117	2300
327	1121	2297
328	1125	2295
329	1128	2291
330	1131	2287
331	1134	2283
332	1137	2278
333	1141	2275
334	1144	2271
335	1146	2266
336	1150	2264
337	1153	2259
338	1156	2255
339	1159	2251
340	1163	2248
341	1166	2245
342	1170	2242
343	1173	2237
344	1176	2232
345	1178	2228
346	1182	2225
347	1186	2222
348	1189	2218
349	1192	2214
350	1195	2210
351	1198	2206
352	1201	2202
353	1204	2197
354	1207	2194
355	1211	2191
356	1214	2186
357	1216	2182
358	1219	2177
359	1223	2174
360	1227	2173
361	1230	2168
362	1233	2164
363	1236	2160
364	1240	2157
365	1246	2158
366	1248	2154
367	1251	2150
368	1254	2145
369	1257	2141
370	1261	2137
371	1263	2133
372	1266	2129
373	1271	2127
374	1273	2123
375	1276	2118
376	1280	2115
377	1283	2112
378	1286	2108
379	1289	2104
380	1293	2101
381	1296	2096
382	1299	2093
383	1303	2091
384	1306	2087
385	1309	2083
386	1312	2079
387	1315	2074
388	1317	2070
389	1321	2066
390	1324	2062
391	1327	2058
392	1330	2055
393	1333	2051
394	1336	2047
395	1340	2044
396	1344	2041
397	1347	2037
398	1349	2033
399	1352	2029
400	1356	2026
401	1361	2024
402	1364	2021
403	1367	2017
404	1371	2014
405	1373	2010
406	1376	2006
407	1379	2001
408	1382	1998
409	1386	1995
410	1389	1991
411	1392	1986
412	1394	1982
413	1398	1979
414	1402	1976
415	1405	1972
416	1408	1968
417	1411	1964
418	1414	1960
419	1418	1959
420	1422	1956
421	1425	1952
422	1428	1948
423	1432	1945
424	1435	1942
425	1438	1938
426	1441	1934
427	1445	1932
428	1448	1928
429	1451	1924
430	1454	1920
431	1458	1917
432	1462	1915
433	1465	1911
434	1468	1907
435	1471	1903
436	1474	1900
437	1479	1897
438	1482	1894
439	1485	1890
440	1488	1886
441	1492	1883
442	1495	1880
443	1498	1876
444	1502	1873
445	1505	1869
446	1508	1865
447	1510	1861
448	1514	1858
449	1518	1855
450	1521	1851
451	1523	1847
452	1527	1844
453	1530	1840
454	1533	1837
455	1537	1834
456	1541	1831
457	1544	1827
458	1547	1824
459	1550	1819
460	1553	1815
461	1556	1812
462	1559	1808
463	1562	1805
464	1565	1801
465	1568	1797
466	1572	1794
467	1576	1791
468	1579	1787
469	1581	1783
470	1584	1780
471	1588	1776
472	1592	1774
473	1596	1771
474	1599	1768
475	1602	1764
476	1606	1761
477	1609	1757
478	1612	1753
479	1615	1750
480	1619	1747
481	1623	1744
482	1626	1741
483	1629	1737
484	1632	1733
485	1635	1730
486	1639	1726
487	1641	1722
488	1644	1718
489	1648	1716
490	1652	1713
491	1655	1709
492	1658	1705
493	1662	1703
494	1665	1699
495	1668	1695
496	1671	1692
497	1674	1687
498	1678	1685
499	1681	1681
500	1685	1679
501	1689	1675
502	1691	1671
503	1694	1667
504	1698	1664
505	1701	1661
506	1704	1657
507	1707	1653
508	1711	1650
509	1714	1647
510	1717	1643
511	1720	1640
512	1724	1636
513	1727	1632
514	1730	1629
515	1733	1626
516	1736	1622
517	1740	1619
518	1744	1616
519	1748	1613
520	1751	1610
521	1754	1606
522	1757	1602
523	1760	1599
524	1763	1595
525	1766	1592
526	1770	1588
527	1772	1584
528	1775	1581
529	1779	1578
530	1783	1575
531	1786	1571
532	1789	1568
533	1792	1564
534	1797	1561
535	1800	1558
536	1804	1555
537	1807	1552
538	1811	1549
539	1814	1545
540	1817	1541
541	1820	1538
542	1823	1534
543	1827	1531
544	1846	1541
545	1853	1540
546	1857	1537
547	1861	1535
548	1865	1532
549	1869	1529
550	1875	1528
551	1879	1525
552	1883	1522
553	1887	1519
554	1890	1515
555	1894	1512
556	1897	1509
557	1900	1505
558	1903	1501
559	1906	1498
560	1910	1494
561	1912	1490
562	1916	1487
563	1919	1483
564	1923	1480
565	1926	1477
566	1930	1474
567	1933	1470
568	1940	1469
569	1944	1466
570	1947	1463
571	1951	1460
572	1955	1457
573	1958	1453
574	1961	1449
575	1964	1445
576	1967	1442
577	1970	1438
578	1973	1435
579	1978	1432
580	1981	1429
581	1984	1425
582	1988	1422
583	1992	1419
584	1995	1415
585	1998	1411
586	2001	1407
587	2004	1404
588	2008	1401
589	2012	1398
590	2014	1394
591	2018	1391
592	2021	1387
593	2024	1383
594	2027	1380
595	2030	1376
596	2033	1372
597	2038	1370
598	2041	1366
599	2044	1362
600	2049	1360
601	2052	1357
602	2056	1354
603	2059	1350
604	2063	1347
605	2069	1345
606	2074	1343
607	2078	1340
608	2081	1336
609	2088	1335
610	2091	1331
611	2095	1328
612	2099	1325
613	2104	1322
614	2107	1319
615	2110	1315
616	2115	1313
617	2118	1309
618	2121	1305
619	2124	1302
620	2127	1298
621	2131	1295
622	2135	1292
623	2139	1288
624	2142	1285
625	2146	1282
626	2149	1278
627	2152	1275
628	2157	1272
629	2161	1269
630	2164	1265
631	2167	1261
632	2170	1258
633	2173	1254
634	2176	1250
635	2179	1247
636	2182	1243
637	2186	1240
638	2189	1236
639	2192	1233
640	2196	1230
641	2200	1226
642	2202	1223
643	2205	1219
644	2209	1215
645	2212	1212
646	2216	1209
647	2220	1206
648	2223	1202
649	2227	1199
650	2229	1195
651	2232	1191
652	2235	1188
653	2238	1184
654	2241	1180
655	2245	1177
656	2248	1173
657	2251	1170
658	2255	1166
659	2259	1164
660	2262	1160
661	2265	1156
662	2268	1153
663	2271	1149
664	2275	1146
665	2280	1143
666	2283	1139
667	2286	1136
668	2289	1132
669	2292	1129
670	2295	1125
671	2299	1122
672	2302	1118
673	2306	1115
674	2310	1112
675	2313	1108
676	2315	1104
677	2319	1101
678	2322	1098
679	2325	1094
680	2328	1090
681	2331	1087
682	2334	1083
683	2337	1080
684	2340	1076
685	2345	1073
686	2349	1070
687	2352	1066
688	2356	1063
689	2359	1059
690	2363	1057
691	2367	1053
692	2371	1050
693	2374	1047
694	2377	1043
695	2381	1040
696	2384	1036
697	2387	1033
698	2390	1029
699	2395	1026
700	2399	1023
701	2403	1020
702	2406	1016
703	2409	1012
704	2412	1009
705	2415	1005
706	2417	1001
707	2421	998
708	2424	995
709	2427	991
710	2430	987
711	2433	984
712	2437	981
713	2440	977
714	2443	973
715	2446	970
716	2450	967
717	2455	964
718	2458	961
719	2461	957
720	2465	953
721	2469	950
722	2472	947
723	2475	943
724	2478	940
725	2482	936
726	2485	933
727	2488	929
728	2491	926
729	2495	923
730	2498	919
731	2501	915
732	2504	912
733	2507	908
734	2511	905
735	2514	902
736	2520	899
737	2523	895
738	2526	892
739	2530	889
740	2533	885
741	2536	881
742	2539	878
743	2542	874
744	2545	871
745	2548	867
746	2551	864
747	2554	860
748	2558	857
749	2561	853
750	2564	850
751	2567	846
752	2572	843
753	2576	840
754	2579	837
755	2582	833
756	2585	829
757	2588	826
758	2592	823
759	2595	819
760	2598	816
761	2602	812
762	2605	809
763	2607	805
764	2612	802
765	2615	798
766	2618	795
767	2621	791
768	2624	788
769	2627	784
770	2631	781
771	2635	778
772	2639	775
773	2642	771
774	2645	768
775	2648	764
776	2651	760
777	2654	757
778	2657	754
779	2661	750
780	2664	747
781	2667	743
782	2670	740
783	2674	736
784	2677	733
785	2680	729
786	2683	726
787	2687	723
788	2691	719
789	2695	716
790	2698	713
791	2702	709
792	2705	706
793	2708	702
794	2711	699
795	2714	695
796	2717	692
797	2722	689
798	2726	685
799	2729	682
800	2733	679
801	2736	675
802	2739	672
803	2742	668
804	2745	665
805	2749	661
806	2752	658
807	2755	654
808	2760	651
809	2764	648
810	2767	645
811	2771	641
812	2774	638
813	2777	634
814	2783	631
815	2786	628
816	2789	624
817	2792	621
818	2795	617
819	2799	614
820	2802	611
821	2805	607
822	2808	604
823	2812	600
824	2815	597
825	2818	593
826	2823	590
827	2826	587
828	2829	583
829	2832	580
830	2835	576
831	2839	573
832	2843	570
833	2847	566
834	2850	563
835	2853	559
836	2856	556
837	2858	552
838	2862	549
839	2865	545
840	2869	542
841	2872	539
842	2875	535
843	2879	532
844	2883	528
845	2886	525
846	2889	521
847	2893	518
848	2896	515
849	2900	511
850	2904	508
851	2907	505
852	2911	501
853	2914	498
854	2917	494
855	2920	491
856	2924	487
857	2929	484
858	2932	481
859	2935	477
860	2938	474
861	2942	471
862	2946	467
863	2948	464
864	2951	460
865	2954	457
866	2958	453
867	2963	450
868	2966	447
869	2969	443
870	2972	440
871	2976	436
872	2979	433
873	2982	429
874	2985	426
875	2988	423
876	2991	419
877	2995	416
878	2998	412
879	3003	409
880	3006	406
881	3009	402
882	3012	399
883	3015	395
884	3018	392
885	3023	388
886	3027	385
887	3029	382
888	3032	378
889	3038	375
890	3042	372
891	3046	368
892	3049	365
893	3053	362
894	3056	358
895	3060	355
896	3064	351
897	3068	348
898	3071	345
899	3075	341
900	3080	338
901	3087	335
902	3091	332
903	3096	328
904	3103	325
905	3107	322
906	3111	319
907	3115	315
908	3119	312
909	3129	309
910	3140	306
911	3156	304
912	3166	301
913	3173	298
914	3183	295
915	3188	292
916	3193	289
917	3197	285
918	3206	282
919	3217	279
920	3226	276
921	3235	273
922	3240	270
923	3244	266
924	3247	263
925	3250	259
926	3253	256
927	3256	252
928	3259	249
929	3263	245
930	3265	242
931	3269	238
932	3274	235
933	3278	231
934	3281	228
935	3285	224
936	3288	221
937	3293	217
938	3297	214
939	3301	210
940	3305	207
941	3309	203
942	3313	200
943	3316	196
944	3319	193
945	3323	189
946	3326	186
947	3333	182
948	3338	179
949	3342	175
950	3345	172
951	3349	168
952	3356	165
953	3359	161
954	3363	158
955	3366	154
956	3369	151
957	3374	147
958	3378	144
959	3382	140
960	3385	137
961	3389	133
962	3393	130
963	3398	126
964	3403	123
965	3408	119
966	3414	116
967	3420	113
968	3423	109
969	3426	105
970	3431	102
971	3436	99
972	3443	95
973	3446	92
974	3450	88
975	3454	84
976	3458	81
977	3462	77
978	3466	74
979	3470	70
980	3474	67
981	3479	63
982	3484	60
983	3487	56
984	3490	53
985	3494	49
986	3497	46
987	3501	42
988	3505	38
989	3509	35
990	3513	31
991	3518	28
992	3521	24
993	3525	21
994	3528	17
995	3533	14
996	3536	10
997	3540	7
998	3543	3
999	3546	0
